C:\PROJECTS\sajat\dinerboss-backend\dinnerboss\repository\src\main\java\com\gergo\sb\dinnerboss\repository\commodity\CommodityDaoImpl.java
C:\PROJECTS\sajat\dinerboss-backend\dinnerboss\repository\src\main\java\com\gergo\sb\dinnerboss\repository\account\AccountDaoMapper.java
C:\PROJECTS\sajat\dinerboss-backend\dinnerboss\repository\src\main\java\com\gergo\sb\dinnerboss\repository\admin\AdminDaoMapper.java
C:\PROJECTS\sajat\dinerboss-backend\dinnerboss\repository\src\main\java\com\gergo\sb\dinnerboss\repository\customer\CustomerDaoImpl.java
C:\PROJECTS\sajat\dinerboss-backend\dinnerboss\repository\src\main\java\com\gergo\sb\dinnerboss\repository\customer\CustomerDaoMapper.java
C:\PROJECTS\sajat\dinerboss-backend\dinnerboss\repository\src\main\java\com\gergo\sb\dinnerboss\repository\company\CompanyDaoMapper.java
C:\PROJECTS\sajat\dinerboss-backend\dinnerboss\repository\src\main\java\com\gergo\sb\dinnerboss\repository\store\StoreDaoImpl.java
C:\PROJECTS\sajat\dinerboss-backend\dinnerboss\repository\src\main\java\com\gergo\sb\dinnerboss\repository\auth\AuthDaoMapper.java
C:\PROJECTS\sajat\dinerboss-backend\dinnerboss\repository\src\main\java\com\gergo\sb\dinnerboss\repository\report\ReportDaoMapper.java
C:\PROJECTS\sajat\dinerboss-backend\dinnerboss\repository\src\main\java\com\gergo\sb\dinnerboss\repository\checkout\CheckoutDaoMapper.java
C:\PROJECTS\sajat\dinerboss-backend\dinnerboss\repository\src\main\java\com\gergo\sb\dinnerboss\repository\admin\AdminSessionDaoImpl.java
C:\PROJECTS\sajat\dinerboss-backend\dinnerboss\repository\src\main\java\com\gergo\sb\dinnerboss\repository\commodity\CommodityDaoMapper.java
C:\PROJECTS\sajat\dinerboss-backend\dinnerboss\repository\src\main\java\com\gergo\sb\dinnerboss\repository\company\CompanyDaoImpl.java
C:\PROJECTS\sajat\dinerboss-backend\dinnerboss\repository\src\main\java\com\gergo\sb\dinnerboss\repository\storage\StorageDaoImpl.java
C:\PROJECTS\sajat\dinerboss-backend\dinnerboss\repository\src\main\java\com\gergo\sb\dinnerboss\repository\admin\AdminSessionDaoMapper.java
C:\PROJECTS\sajat\dinerboss-backend\dinnerboss\repository\src\main\java\com\gergo\sb\dinnerboss\repository\storage\StorageDaoMapper.java
C:\PROJECTS\sajat\dinerboss-backend\dinnerboss\repository\src\main\java\com\gergo\sb\dinnerboss\repository\admin\AdminDaoImpl.java
C:\PROJECTS\sajat\dinerboss-backend\dinnerboss\repository\src\main\java\com\gergo\sb\dinnerboss\repository\store\StoreDaoMapper.java
C:\PROJECTS\sajat\dinerboss-backend\dinnerboss\repository\src\main\java\com\gergo\sb\dinnerboss\repository\auth\AuthDaoImpl.java
C:\PROJECTS\sajat\dinerboss-backend\dinnerboss\repository\src\main\java\com\gergo\sb\dinnerboss\repository\checkout\CheckoutDaoImpl.java
C:\PROJECTS\sajat\dinerboss-backend\dinnerboss\repository\src\main\java\com\gergo\sb\dinnerboss\repository\report\ReportDaoImpl.java
