C:\PROJECTS\sajat\dinerboss-backend\dinnerboss\service-api\src\main\java\com\gergo\sb\dinnerboss\serviceapi\service\checkout\AddTransmissionDO.java
C:\PROJECTS\sajat\dinerboss-backend\dinnerboss\service-api\src\main\java\com\gergo\sb\dinnerboss\serviceapi\service\customer\CustomerProfileDO.java
C:\PROJECTS\sajat\dinerboss-backend\dinnerboss\service-api\src\main\java\com\gergo\sb\dinnerboss\serviceapi\service\customer\LoginCustomerResponseDO.java
C:\PROJECTS\sajat\dinerboss-backend\dinnerboss\service-api\src\main\java\com\gergo\sb\dinnerboss\serviceapi\service\company\CreateRemoteCompanyRequest.java
C:\PROJECTS\sajat\dinerboss-backend\dinnerboss\service-api\src\main\java\com\gergo\sb\dinnerboss\serviceapi\service\company\StoreIncomeResponse.java
C:\PROJECTS\sajat\dinerboss-backend\dinnerboss\service-api\src\main\java\com\gergo\sb\dinnerboss\serviceapi\service\admin\AdminDetailsImpl.java
C:\PROJECTS\sajat\dinerboss-backend\dinnerboss\service-api\src\main\java\com\gergo\sb\dinnerboss\serviceapi\service\auth\RemoteAdminProfile.java
C:\PROJECTS\sajat\dinerboss-backend\dinnerboss\service-api\src\main\java\com\gergo\sb\dinnerboss\serviceapi\service\store\StoreServiceApi.java
C:\PROJECTS\sajat\dinerboss-backend\dinnerboss\service-api\src\main\java\com\gergo\sb\dinnerboss\serviceapi\service\admin\AdminSessionDO.java
C:\PROJECTS\sajat\dinerboss-backend\dinnerboss\service-api\src\main\java\com\gergo\sb\dinnerboss\serviceapi\service\admin\CreateRequest.java
C:\PROJECTS\sajat\dinerboss-backend\dinnerboss\service-api\src\main\java\com\gergo\sb\dinnerboss\serviceapi\service\company\CreateCompanyDO.java
C:\PROJECTS\sajat\dinerboss-backend\dinnerboss\service-api\src\main\java\com\gergo\sb\dinnerboss\serviceapi\log\Log.java
C:\PROJECTS\sajat\dinerboss-backend\dinnerboss\service-api\src\main\java\com\gergo\sb\dinnerboss\serviceapi\service\admin\AdminServiceApi.java
C:\PROJECTS\sajat\dinerboss-backend\dinnerboss\service-api\src\main\java\com\gergo\sb\dinnerboss\serviceapi\service\company\CompanySearchParams.java
C:\PROJECTS\sajat\dinerboss-backend\dinnerboss\service-api\src\main\java\com\gergo\sb\dinnerboss\serviceapi\service\store\StoreDO.java
C:\PROJECTS\sajat\dinerboss-backend\dinnerboss\service-api\src\main\java\com\gergo\sb\dinnerboss\serviceapi\service\storage\GetAllByStoreRemoteResponse.java
C:\PROJECTS\sajat\dinerboss-backend\dinnerboss\service-api\src\main\java\com\gergo\sb\dinnerboss\serviceapi\service\company\SeriesDO.java
C:\PROJECTS\sajat\dinerboss-backend\dinnerboss\service-api\src\main\java\com\gergo\sb\dinnerboss\serviceapi\service\company\CompanyDO.java
C:\PROJECTS\sajat\dinerboss-backend\dinnerboss\service-api\src\main\java\com\gergo\sb\dinnerboss\serviceapi\service\common\RemoteSearchParams.java
C:\PROJECTS\sajat\dinerboss-backend\dinnerboss\service-api\src\main\java\com\gergo\sb\dinnerboss\serviceapi\service\storage\PageRemoteCommRegistrationsSearch.java
C:\PROJECTS\sajat\dinerboss-backend\dinnerboss\service-api\src\main\java\com\gergo\sb\dinnerboss\serviceapi\service\admin\Admin.java
C:\PROJECTS\sajat\dinerboss-backend\dinnerboss\service-api\src\main\java\com\gergo\sb\dinnerboss\serviceapi\service\storage\StorageDO.java
C:\PROJECTS\sajat\dinerboss-backend\dinnerboss\service-api\src\main\java\com\gergo\sb\dinnerboss\serviceapi\service\customer\ModifyRemoteCustomerRequest.java
C:\PROJECTS\sajat\dinerboss-backend\dinnerboss\service-api\src\main\java\com\gergo\sb\dinnerboss\serviceapi\service\storage\ListCommodityByStorageRemoteResponse.java
C:\PROJECTS\sajat\dinerboss-backend\dinnerboss\service-api\src\main\java\com\gergo\sb\dinnerboss\serviceapi\service\common\PagedData.java
C:\PROJECTS\sajat\dinerboss-backend\dinnerboss\service-api\src\main\java\com\gergo\sb\dinnerboss\serviceapi\service\common\RemoteBaseResponse.java
C:\PROJECTS\sajat\dinerboss-backend\dinnerboss\service-api\src\main\java\com\gergo\sb\dinnerboss\serviceapi\service\checkout\CreateCheckoutDO.java
C:\PROJECTS\sajat\dinerboss-backend\dinnerboss\service-api\src\main\java\com\gergo\sb\dinnerboss\serviceapi\service\customer\CustomerServiceApi.java
C:\PROJECTS\sajat\dinerboss-backend\dinnerboss\service-api\src\main\java\com\gergo\sb\dinnerboss\serviceapi\service\storage\StorageContentDO.java
C:\PROJECTS\sajat\dinerboss-backend\dinnerboss\service-api\src\main\java\com\gergo\sb\dinnerboss\serviceapi\service\storage\StorageServiceApi.java
C:\PROJECTS\sajat\dinerboss-backend\dinnerboss\service-api\src\main\java\com\gergo\sb\dinnerboss\serviceapi\service\storage\PageRemoteCommRegistrationResponse.java
C:\PROJECTS\sajat\dinerboss-backend\dinnerboss\service-api\src\main\java\com\gergo\sb\dinnerboss\serviceapi\service\report\ReportSearchParams.java
C:\PROJECTS\sajat\dinerboss-backend\dinnerboss\service-api\src\main\java\com\gergo\sb\dinnerboss\serviceapi\service\company\StoreIncomeDO.java
C:\PROJECTS\sajat\dinerboss-backend\dinnerboss\service-api\src\main\java\com\gergo\sb\dinnerboss\serviceapi\service\commodity\CommodityServiceApi.java
C:\PROJECTS\sajat\dinerboss-backend\dinnerboss\service-api\src\main\java\com\gergo\sb\dinnerboss\serviceapi\service\store\PageRemoteStoreResponse.java
C:\PROJECTS\sajat\dinerboss-backend\dinnerboss\service-api\src\main\java\com\gergo\sb\dinnerboss\serviceapi\service\report\CreateReportDO.java
C:\PROJECTS\sajat\dinerboss-backend\dinnerboss\service-api\src\main\java\com\gergo\sb\dinnerboss\serviceapi\service\commodity\PageRemoteCommodityResponse.java
C:\PROJECTS\sajat\dinerboss-backend\dinnerboss\service-api\src\main\java\com\gergo\sb\dinnerboss\serviceapi\service\admin\CreateAdminDO.java
C:\PROJECTS\sajat\dinerboss-backend\dinnerboss\service-api\src\main\java\com\gergo\sb\dinnerboss\serviceapi\service\company\GetOwnersByIdResponse.java
C:\PROJECTS\sajat\dinerboss-backend\dinnerboss\service-api\src\main\java\com\gergo\sb\dinnerboss\serviceapi\service\commodity\CommoditySearchParams.java
C:\PROJECTS\sajat\dinerboss-backend\dinnerboss\service-api\src\main\java\com\gergo\sb\dinnerboss\serviceapi\service\customer\CreateRemoteCustomerResponse.java
C:\PROJECTS\sajat\dinerboss-backend\dinnerboss\service-api\src\main\java\com\gergo\sb\dinnerboss\serviceapi\service\commodity\CreateCommodityDO.java
C:\PROJECTS\sajat\dinerboss-backend\dinnerboss\service-api\src\main\java\com\gergo\sb\dinnerboss\serviceapi\service\checkout\TransmissionSearchParams.java
C:\PROJECTS\sajat\dinerboss-backend\dinnerboss\service-api\src\main\java\com\gergo\sb\dinnerboss\serviceapi\service\customer\CustomerSearchParams.java
C:\PROJECTS\sajat\dinerboss-backend\dinnerboss\service-api\src\main\java\com\gergo\sb\dinnerboss\serviceapi\service\report\ReportDO.java
C:\PROJECTS\sajat\dinerboss-backend\dinnerboss\service-api\src\main\java\com\gergo\sb\dinnerboss\serviceapi\service\store\GetRemoteStoresByCompIdResponse.java
C:\PROJECTS\sajat\dinerboss-backend\dinnerboss\service-api\src\main\java\com\gergo\sb\dinnerboss\serviceapi\service\company\CompanyServiceApi.java
C:\PROJECTS\sajat\dinerboss-backend\dinnerboss\service-api\src\main\java\com\gergo\sb\dinnerboss\serviceapi\rc\exception\ReturnCodeAwareException.java
C:\PROJECTS\sajat\dinerboss-backend\dinnerboss\service-api\src\main\java\com\gergo\sb\dinnerboss\serviceapi\service\report\ReportServiceApi.java
C:\PROJECTS\sajat\dinerboss-backend\dinnerboss\service-api\src\main\java\com\gergo\sb\dinnerboss\serviceapi\service\commodity\CreateRemoteCommodityRequest.java
C:\PROJECTS\sajat\dinerboss-backend\dinnerboss\service-api\src\main\java\com\gergo\sb\dinnerboss\serviceapi\service\report\PageRemoteReportResponse.java
C:\PROJECTS\sajat\dinerboss-backend\dinnerboss\service-api\src\main\java\com\gergo\sb\dinnerboss\serviceapi\service\checkout\CheckoutDO.java
C:\PROJECTS\sajat\dinerboss-backend\dinnerboss\service-api\src\main\java\com\gergo\sb\dinnerboss\serviceapi\service\checkout\CheckoutSearchParams.java
C:\PROJECTS\sajat\dinerboss-backend\dinnerboss\service-api\src\main\java\com\gergo\sb\dinnerboss\serviceapi\service\auth\LoginRemoteAdminRequest.java
C:\PROJECTS\sajat\dinerboss-backend\dinnerboss\service-api\src\main\java\com\gergo\sb\dinnerboss\serviceapi\service\admin\GetRemoteAdminResponse.java
C:\PROJECTS\sajat\dinerboss-backend\dinnerboss\service-api\src\main\java\com\gergo\sb\dinnerboss\serviceapi\service\checkout\CheckoutServiceApi.java
C:\PROJECTS\sajat\dinerboss-backend\dinnerboss\service-api\src\main\java\com\gergo\sb\dinnerboss\serviceapi\service\company\PageRemoteCompaniesResponse.java
C:\PROJECTS\sajat\dinerboss-backend\dinnerboss\service-api\src\main\java\com\gergo\sb\dinnerboss\serviceapi\service\checkout\TransmissionDO.java
C:\PROJECTS\sajat\dinerboss-backend\dinnerboss\service-api\src\main\java\com\gergo\sb\dinnerboss\serviceapi\service\customer\PageRemoteCustomerResponse.java
C:\PROJECTS\sajat\dinerboss-backend\dinnerboss\service-api\src\main\java\com\gergo\sb\dinnerboss\serviceapi\service\auth\AuthServiceApi.java
C:\PROJECTS\sajat\dinerboss-backend\dinnerboss\service-api\src\main\java\com\gergo\sb\dinnerboss\serviceapi\service\checkout\PageRemoteTransmissionResponse.java
C:\PROJECTS\sajat\dinerboss-backend\dinnerboss\service-api\src\main\java\com\gergo\sb\dinnerboss\serviceapi\service\customer\GetRemoteCustomerByEmailResponse.java
C:\PROJECTS\sajat\dinerboss-backend\dinnerboss\service-api\src\main\java\com\gergo\sb\dinnerboss\serviceapi\rc\exception\UserExistException.java
C:\PROJECTS\sajat\dinerboss-backend\dinnerboss\service-api\src\main\java\com\gergo\sb\dinnerboss\serviceapi\service\common\PagedRequest.java
C:\PROJECTS\sajat\dinerboss-backend\dinnerboss\service-api\src\main\java\com\gergo\sb\dinnerboss\serviceapi\service\customer\CreateCustomerDO.java
C:\PROJECTS\sajat\dinerboss-backend\dinnerboss\service-api\src\main\java\com\gergo\sb\dinnerboss\serviceapi\service\store\GetCustomersByIdResponse.java
C:\PROJECTS\sajat\dinerboss-backend\dinnerboss\service-api\src\main\java\com\gergo\sb\dinnerboss\serviceapi\service\checkout\ModifyCheckoutDO.java
C:\PROJECTS\sajat\dinerboss-backend\dinnerboss\service-api\src\main\java\com\gergo\sb\dinnerboss\serviceapi\rc\ReturnCode.java
C:\PROJECTS\sajat\dinerboss-backend\dinnerboss\service-api\src\main\java\com\gergo\sb\dinnerboss\serviceapi\service\store\StoreSearchParams.java
C:\PROJECTS\sajat\dinerboss-backend\dinnerboss\service-api\src\main\java\com\gergo\sb\dinnerboss\serviceapi\service\store\CreateRemoteStoreRequest.java
C:\PROJECTS\sajat\dinerboss-backend\dinnerboss\service-api\src\main\java\com\gergo\sb\dinnerboss\serviceapi\service\store\CreateStoreDO.java
C:\PROJECTS\sajat\dinerboss-backend\dinnerboss\service-api\src\main\java\com\gergo\sb\dinnerboss\serviceapi\service\checkout\CreateRemoteCheckoutRequest.java
C:\PROJECTS\sajat\dinerboss-backend\dinnerboss\service-api\src\main\java\com\gergo\sb\dinnerboss\serviceapi\service\admin\AdminDetails.java
C:\PROJECTS\sajat\dinerboss-backend\dinnerboss\service-api\src\main\java\com\gergo\sb\dinnerboss\serviceapi\service\admin\CreateRemoteAdminResponse.java
C:\PROJECTS\sajat\dinerboss-backend\dinnerboss\service-api\src\main\java\com\gergo\sb\dinnerboss\serviceapi\service\report\CreateRemoteReportRequest.java
C:\PROJECTS\sajat\dinerboss-backend\dinnerboss\service-api\src\main\java\com\gergo\sb\dinnerboss\serviceapi\service\auth\LoginRemoteAdminResponse.java
C:\PROJECTS\sajat\dinerboss-backend\dinnerboss\service-api\src\main\java\com\gergo\sb\dinnerboss\serviceapi\service\company\ModifyRemoteCompanyRequest.java
C:\PROJECTS\sajat\dinerboss-backend\dinnerboss\service-api\src\main\java\com\gergo\sb\dinnerboss\serviceapi\service\storage\RemoteCommodityRegDO.java
C:\PROJECTS\sajat\dinerboss-backend\dinnerboss\service-api\src\main\java\com\gergo\sb\dinnerboss\serviceapi\service\checkout\PageRemoteCheckoutResponse.java
C:\PROJECTS\sajat\dinerboss-backend\dinnerboss\service-api\src\main\java\com\gergo\sb\dinnerboss\serviceapi\service\commodity\CommodityDO.java
C:\PROJECTS\sajat\dinerboss-backend\dinnerboss\service-api\src\main\java\com\gergo\sb\dinnerboss\serviceapi\service\customer\CreateRemoteCustomerRequest.java
C:\PROJECTS\sajat\dinerboss-backend\dinnerboss\service-api\src\main\java\com\gergo\sb\dinnerboss\serviceapi\service\storage\RegisterDO.java
C:\PROJECTS\sajat\dinerboss-backend\dinnerboss\service-api\src\main\java\com\gergo\sb\dinnerboss\serviceapi\service\company\GetRemoteCompanyByName.java
