com\gergo\sb\dinnerboss\serviceapiimpl\service\store\StoreDao.class
com\gergo\sb\dinnerboss\serviceapiimpl\service\checkout\CheckoutDao.class
com\gergo\sb\dinnerboss\serviceapiimpl\service\auth\dao\AuthServiceApiImpl.class
com\gergo\sb\dinnerboss\serviceapiimpl\service\report\ReportDao.class
com\gergo\sb\dinnerboss\serviceapiimpl\service\admin\authentication\loginaction\AdminAuthenticationToken.class
com\gergo\sb\dinnerboss\serviceapiimpl\service\admin\authentication\loginaction\AdminAuthenticator.class
com\gergo\sb\dinnerboss\serviceapiimpl\service\auth\dao\AuthDao.class
com\gergo\sb\dinnerboss\serviceapiimpl\service\company\CompanyDao.class
com\gergo\sb\dinnerboss\serviceapiimpl\service\store\StoreServiceApiImpl.class
com\gergo\sb\dinnerboss\serviceapiimpl\service\admin\authentication\loginaction\AdminAuthenticationTokenImpl.class
com\gergo\sb\dinnerboss\serviceapiimpl\service\admin\authentication\loginaction\CreateAdminSession.class
com\gergo\sb\dinnerboss\serviceapiimpl\service\admin\dao\AdminSessionDao.class
com\gergo\sb\dinnerboss\serviceapiimpl\service\customer\CustomerServiceApiImpl.class
com\gergo\sb\dinnerboss\serviceapiimpl\service\admin\authentication\session\AdminSessionImpl.class
com\gergo\sb\dinnerboss\serviceapiimpl\service\storage\StorageDao.class
com\gergo\sb\dinnerboss\serviceapiimpl\service\customer\dao\CustomerDao.class
com\gergo\sb\dinnerboss\serviceapiimpl\service\storage\StorageServiceApiImpl.class
com\gergo\sb\dinnerboss\serviceapiimpl\service\commodity\CommodityServiceApiImpl.class
com\gergo\sb\dinnerboss\serviceapiimpl\service\report\ReportServiceApiImpl.class
com\gergo\sb\dinnerboss\serviceapiimpl\service\admin\dao\AdminDao.class
com\gergo\sb\dinnerboss\serviceapiimpl\service\admin\dao\AdminServiceApiImpl.class
com\gergo\sb\dinnerboss\serviceapiimpl\service\checkout\CheckoutServiceApiImpl.class
com\gergo\sb\dinnerboss\serviceapiimpl\service\company\CompanyServiceApiImpl.class
com\gergo\sb\dinnerboss\serviceapiimpl\service\admin\authentication\loginaction\AdminAuthenticationImpl.class
com\gergo\sb\dinnerboss\serviceapiimpl\service\commodity\CommodityDao.class
com\gergo\sb\dinnerboss\serviceapiimpl\service\admin\authentication\session\AdminSession.class
